[Sun, Apr 02, 2017 12:05:56 PM] 0 of 4 tests passed
[Sun, Apr 02, 2017  3:10:23 PM] 0 of 4 tests passed
[Sun, Apr 02, 2017  3:26:37 PM] 0 of 4 tests passed
[Sun, Apr 02, 2017  3:29:03 PM] 0 of 4 tests passed
[Sun, Apr 02, 2017  3:40:19 PM] 0 of 4 tests passed
[Sun, Apr 02, 2017  5:30:07 PM] 0 of 4 tests passed
[Sun, Apr 02, 2017  5:30:33 PM] 0 of 4 tests passed
[Sun, Apr 02, 2017  5:45:59 PM] 2 of 4 tests passed
[Sun, Apr 02, 2017  5:48:07 PM] 2 of 4 tests passed
[Sun, Apr 02, 2017  6:36:41 PM] 2 of 4 tests passed
[Sun, Apr 02, 2017  8:00:49 PM] 2 of 4 tests passed
[Sun, Apr 02, 2017  9:04:47 PM] 3 of 4 tests passed
[Sun, Apr 02, 2017 10:20:40 PM] 3 of 4 tests passed
[Mon, Apr 03, 2017  5:31:38 PM] 3 of 4 tests passed
[Mon, Apr 03, 2017  5:36:32 PM] 3 of 4 tests passed
[Mon, Apr 03, 2017  8:45:33 PM] 3 of 4 tests passed
[Mon, Apr 03, 2017  9:30:05 PM] 3 of 4 tests passed
[Mon, Apr 03, 2017  9:40:56 PM] 3 of 4 tests passed
